{
    "experience": [
      {
        "duration": "2024 — Present",
        "position": "Fullstack developer",
        "company": "Paladin",
        "company_link": "https://www.paladin.vote/",
        "description": "Developing with the paladin team, a decentralized voting platform for DAOs and communities. I am asign to different projects and tasks, from front-end to back-end. Alongside my work at Paladin, I am still learning web development at Ynov Montpellier for a master.",
        "skills": ["React", "TypeScript", "SCSS", "NodeJS", "Go", "GraphQL"]
      },
      {
        "duration": "2022 — 2023",
        "position": "Fullstack developer",
        "company": "Solid NFT",
        "company_link": "https://www.solidnft.com/",
        "description": "Only develop at Solid NFT building products and tools for intern product and extern product for customers. While working at Solid NFT, I am still learning web development at Ynov Montpellier for a master.",
        "skills": ["React", "JavaScript", "SCSS", "Tailwind", "NodeJS", "Solidity", "Firebase", "Google Cloud"]
      },
      {
        "duration": "2021 — 2022",
        "position": "Intern - Web developper",
        "company": "WebmediaRm",
        "company_link": "https://webmediarm.com/",
        "description": "Still learning web development in School for a professional degree, i was an intern at WebmediaRm doing SEO, WordPress maintenance and some community management.",
        "skills": ["WordPress", "SEO", "HTML", "JavaScript", "CSS"]
      },
      {
        "duration": "2019 — 2021",
        "position": "Computer Science student",
        "company": "DUT informatique",
        "description": "Learning the basics of computer science and get introduced to front-end development.",
        "skills": ["C++", "Python", "Vue.js", "JavaScript", "Django", "PHP"]
      }
    ]
  }
  